id,name,model_id:id,group_id:id,perm_read,perm_write,perm_create,perm_unlink
access_llu_mite_insect,access_llu_mite_insect,model_llu_mite_insect,group_llu_mite_user,1,0,0,0
access_llu_mite_probe,access_llu_mite_probe,model_llu_mite_probe,group_llu_mite_user,1,0,0,0
access_llu_mite_accident,access_llu_mite_accident,model_llu_mite_accident,group_llu_mite_user,1,0,0,0
access_llu_mite_insect,access_llu_mite_insect,model_llu_mite_insect,group_llu_mite_manager,1,1,1,1
access_llu_mite_probe,access_llu_mite_probe,model_llu_mite_probe,group_llu_mite_manager,1,1,1,1
access_llu_mite_accident,access_llu_mite_accident,model_llu_mite_accident,group_llu_mite_manager,1,1,1,1